<svg width="28" height="28" viewBox="0 0 28 28" fill="none" xmlns="http://www.w3.org/2000/svg">
<path d="M14.0084 -0.000488281C20.8788 1.91702 24.0828 4.30157 27.7592 9.98991C28.0573 17.1138 26.7855 20.8987 22.5083 26.1501C15.8218 28.639 11.8277 28.5942 5.5137 26.1501C1.08249 20.5615 -0.109751 16.7512 0.262789 9.98991C4.20715 4.04852 7.46579 1.73341 14.0087 -0.000488281H14.0084Z" fill="#297BBF"/>
<path fill-rule="evenodd" clip-rule="evenodd" d="M4.11697 11.7952L4.42 11.353L4.42925 11.3594L4.12627 11.8014L4.12622 11.8015L3.52557 12.705L3.12824 13.8622L2.91514 14.3528L2.95475 15.1648L3.28739 15.7209L3.40672 16.3722L3.56539 16.8284L3.92863 17.4952L3.89875 17.8388L3.97788 18.1998L4.26042 18.7054L4.52426 19.0389L4.60401 19.4377L4.59302 19.4399L4.5138 19.0438L4.25078 18.7113L4.25085 18.7113L3.96728 18.2038L3.88743 17.8395L3.91717 17.4976L3.55488 16.8326L3.55495 16.8325L3.3957 16.3747L3.27672 15.7249L2.94368 15.1682L2.90381 14.3507L3.11785 13.8579L3.51543 12.6999L4.11693 11.7952L4.11697 11.7952Z" fill="black"/>
<path d="M14.0084 24.7541C14.4257 24.7243 14.7535 24.5852 15.1411 24.4412C15.7272 24.2176 16.224 23.9792 17.2672 24.2425C17.5504 24.312 17.8882 24.4412 18.2111 24.5803C18.8867 24.8684 19.6667 25.1416 20.536 25.0671L20.6105 24.7591C20.238 24.466 20.0989 24.0487 19.9846 23.5271C19.9548 23.388 19.925 23.2539 19.8902 23.1098L19.8604 23.0005L19.7511 22.9906C19.1103 22.9409 18.6532 22.7819 18.082 22.5783C17.8386 22.4889 17.5753 22.3945 17.2672 22.3001C16.4277 22.0418 15.6627 22.2355 14.9523 22.4143C14.5747 22.5087 14.3711 22.5981 14.0382 22.613H13.9935C13.6557 22.6031 13.452 22.5137 13.0794 22.4143C12.3691 22.2355 11.5991 22.0417 10.7645 22.3001C10.4565 22.3945 10.1932 22.4889 9.94975 22.5783C9.37846 22.7819 8.92145 22.9409 8.2806 22.9906L8.17131 23.0005L8.1415 23.1098C8.10176 23.2539 8.07692 23.388 8.04214 23.5271C7.92789 24.0487 7.80867 24.4958 7.43608 24.7889L7.4957 25.0224C8.36503 25.0969 9.10023 24.8585 9.77588 24.5654C10.0988 24.4263 10.4167 24.2971 10.7048 24.2276C11.7481 23.9643 12.2945 24.2226 12.8857 24.4462C13.2732 24.5902 13.606 24.7293 14.0233 24.7591L14.0084 24.7541ZM14.0084 22.4292C13.4371 22.2752 12.8608 22.002 12.3541 21.6294C12.2498 21.5499 12.1455 21.4704 12.0461 21.381C12.0064 21.3463 11.9716 21.3115 11.9319 21.2767C11.2761 21.545 10.3273 21.848 9.35862 22.0219C8.54886 22.1659 7.72426 22.2156 7.02874 22.0715C6.30844 21.9275 5.7322 21.5748 5.46389 20.9091C5.41918 20.7949 5.37944 20.6707 5.35461 20.5415C4.79822 20.1739 4.52497 19.7268 4.43558 19.3691C4.4157 19.2946 4.40577 19.2201 4.4008 19.1555C4.39583 19.1158 4.39583 19.081 4.4008 19.0413C4.01829 18.6637 3.78977 18.2713 3.755 17.9036C3.75003 17.8242 3.75003 17.7496 3.76493 17.6702C3.77487 17.6254 3.77983 17.5807 3.79474 17.541H3.79971C3.60597 17.3125 3.45694 17.084 3.35261 16.8157C3.24332 16.5375 3.19364 16.2246 3.20855 15.842C2.52797 15.2161 2.61242 14.2375 3.02971 13.4128C3.51655 12.4441 4.16735 11.525 4.4505 10.7104C4.60947 10.2583 4.73366 10.5415 4.73366 10.6806C4.73366 11.3562 4.62437 12.0815 4.48527 12.7323C4.47037 12.8018 4.45547 12.8714 4.41076 13.0949C4.34121 13.4278 4.34121 13.7407 4.4356 13.9692C4.47534 14.0636 4.52999 14.1381 4.59953 14.2027C4.66908 14.2623 4.76346 14.307 4.87772 14.3319C5.14102 14.3865 5.51359 14.3269 6.01536 14.1183C7.24239 13.6016 8.42966 13.1495 9.27421 13.09C10.2181 13.0254 10.7695 13.4029 10.5857 14.6051C10.5608 14.769 10.531 14.9379 10.5062 15.0919C10.4366 15.4943 10.4019 15.7229 10.4267 15.9364C10.4466 16.1004 10.4913 16.2842 10.6055 16.4729C10.6999 16.6319 10.8489 16.7909 11.0775 16.9498C11.0874 16.92 11.1023 16.8853 11.1122 16.8555C11.0477 16.1699 11.1122 15.4893 11.4004 14.8485C11.455 14.7342 11.5097 14.62 11.5792 14.5107L10.2578 8.07747C10.1684 7.63534 10.0641 7.35717 9.89021 7.22802C9.65673 7.05415 9.27421 7.10383 9.00597 7.14854C8.77745 7.18828 8.77745 7.05415 8.94139 6.95976C9.18977 6.82066 9.48784 6.62195 9.75611 6.44312C10.243 6.12021 10.7298 5.83209 11.2713 6.24441C11.3408 5.78241 11.7035 5.53902 12.0512 5.30053C12.1506 5.22601 12.3989 5.08692 12.5281 4.89318C12.6523 4.71434 12.7964 4.64976 12.8212 4.8584C12.8262 4.91305 12.846 5.02731 12.8659 5.14653C13.1143 4.87828 13.4869 4.72428 13.7303 4.46595C13.8694 4.31692 13.8743 4.17782 14.0035 4.17285C14.1327 4.17782 14.1376 4.31692 14.2767 4.46595C14.5201 4.72427 14.8927 4.87827 15.1411 5.14653C15.161 5.02731 15.1808 4.91305 15.1858 4.8584C15.2106 4.64976 15.3547 4.70937 15.4789 4.89318C15.613 5.08195 15.8564 5.22601 15.9558 5.30053C16.2986 5.53898 16.6612 5.78239 16.7308 6.24441C17.2722 5.83209 17.764 6.12021 18.2459 6.44312C18.5142 6.62195 18.8172 6.82066 19.0606 6.95976C19.2196 7.04918 19.2196 7.1833 18.9911 7.14854C18.7278 7.10383 18.3403 7.05415 18.1068 7.22802C17.933 7.36215 17.8287 7.63537 17.7392 8.07747L16.4178 14.5107C16.4824 14.62 16.542 14.7342 16.5917 14.8485C16.8798 15.4893 16.9494 16.1748 16.8798 16.8555C16.8947 16.8853 16.9047 16.92 16.9146 16.9498C17.1431 16.7909 17.2922 16.6319 17.3865 16.4729C17.5008 16.2842 17.5455 16.1004 17.5654 15.9364C17.5902 15.7178 17.5555 15.4943 17.4859 15.0919C17.4611 14.9429 17.4313 14.769 17.4064 14.6051C17.2226 13.4079 17.774 13.0254 18.7179 13.09C19.5674 13.1446 20.7497 13.6016 21.9817 14.1183C22.4834 14.3319 22.856 14.3865 23.1193 14.3319C23.2336 14.307 23.323 14.2673 23.3975 14.2027C23.472 14.1431 23.5267 14.0636 23.5615 13.9692C23.6558 13.7407 23.6558 13.4277 23.5913 13.0949C23.5466 12.8714 23.5317 12.8018 23.5168 12.7323C23.3826 12.0815 23.2733 11.3562 23.2733 10.6806C23.2733 10.5415 23.3975 10.2583 23.5565 10.7104C23.8397 11.5251 24.4904 12.4441 24.9773 13.4128C25.3946 14.2424 25.479 15.221 24.7984 15.842C24.8133 16.2245 24.7637 16.5375 24.6544 16.8157C24.555 17.084 24.401 17.3125 24.2122 17.541C24.2271 17.5807 24.2371 17.6254 24.2421 17.6702C24.257 17.7496 24.257 17.8291 24.252 17.9036C24.2222 18.2712 23.9887 18.6587 23.6062 19.0413V19.1555C23.6012 19.2201 23.5913 19.2946 23.5714 19.3691C23.482 19.7268 23.2088 20.1739 22.6524 20.5415C22.6275 20.6707 22.5878 20.7949 22.5431 20.9091C22.2748 21.5748 21.6986 21.9225 20.9782 22.0715C20.2828 22.2156 19.4581 22.161 18.6484 22.0219C17.6796 21.853 16.7358 21.545 16.0751 21.2767C16.0353 21.3115 16.0006 21.3463 15.9608 21.381C15.8565 21.4704 15.7572 21.5499 15.6528 21.6294C15.1461 22.002 14.5649 22.2752 13.9986 22.4292H14.0084Z" fill="black"/>
<path d="M13.6584 12.2206C13.7825 12.3796 13.9117 12.5435 14.0111 12.7422C14.1054 12.5435 14.2346 12.3796 14.3588 12.2206C14.5525 11.9722 14.7413 11.7387 14.7512 11.381C14.7612 11.0134 14.5426 10.7154 14.329 10.4123C14.2147 10.2484 14.1005 10.0894 14.0111 9.91553C13.9216 10.0894 13.8074 10.2533 13.6931 10.4123C13.4795 10.7153 13.2609 11.0134 13.2709 11.381C13.2758 11.7387 13.4646 11.9722 13.6633 12.2206H13.6584Z" fill="white"/>
<path d="M5.5107 20.2881C5.81374 20.4173 6.09193 20.4868 6.37016 20.5166C6.62351 20.5464 6.88183 20.5415 7.16004 20.5315C7.35378 20.5216 7.37365 20.8346 7.15507 20.8445C6.87192 20.8594 6.60862 20.8594 6.33537 20.8296C6.1317 20.8097 5.92802 20.77 5.7144 20.7004C5.72434 20.7402 5.73924 20.7749 5.75415 20.8097C5.9777 21.3611 6.47445 21.6592 7.09542 21.7834C7.74619 21.9176 8.53112 21.8679 9.31106 21.7288C10.1208 21.5847 10.9156 21.3463 11.5316 21.1177C10.6126 20.9488 9.90221 20.6359 9.41039 20.154C8.854 19.6125 8.59069 18.8723 8.64536 17.8987C8.68013 17.2628 8.87387 16.612 9.05271 16.0059C9.1769 15.5837 9.29613 15.1813 9.34581 14.8336C9.44019 14.1878 9.27626 13.7059 8.40193 13.5767C7.73128 13.7605 6.95139 14.0685 6.1466 14.4064C5.58027 14.6448 5.14805 14.7044 4.82521 14.6398C4.6563 14.6051 4.52218 14.5405 4.40792 14.4461C4.29862 14.3517 4.21418 14.2325 4.15456 14.0984C4.03533 13.8102 4.03037 13.4327 4.10985 13.0402C4.11482 13.0154 4.1496 12.8465 4.18437 12.6776C4.25888 12.31 4.3334 11.9722 4.38805 11.6095C4.24399 11.8927 4.08005 12.1759 3.91611 12.459C3.4094 13.3482 2.89775 14.2374 3.07163 14.9875C3.29021 15.9314 4.39799 16.145 5.20775 16.2643C5.55549 16.3139 5.51575 16.6269 5.13323 16.5623C4.68614 16.4928 4.16947 16.3785 3.76214 16.1997C3.6777 16.1599 3.59821 16.1202 3.51873 16.0755C3.52866 16.3139 3.57337 16.5176 3.64292 16.7014C3.99066 17.6006 4.67122 17.7049 5.53565 17.7894C5.93804 17.8291 5.92313 18.1371 5.51578 18.1023C5.07862 18.0626 4.60172 17.9831 4.23905 17.8341C4.17943 17.8092 4.11982 17.7794 4.06517 17.7496C3.98073 18.2315 4.36324 18.6836 4.82026 18.9071C5.2922 19.1356 5.84856 19.1306 6.2162 19.1008C6.4944 19.081 6.4944 19.4138 6.22117 19.4138C5.92808 19.4138 5.60517 19.4088 5.29717 19.3691C5.08853 19.3393 4.88982 19.2946 4.71098 19.225C4.71595 19.2499 4.72092 19.2697 4.72588 19.2946C4.8004 19.5877 5.02891 19.9553 5.49588 20.2732L5.5107 20.2881Z" fill="white"/>
<path d="M13.0564 13.4526C12.3758 13.9047 11.9485 14.4213 11.7002 14.9727C11.5114 15.395 11.4269 15.8421 11.417 16.2991C11.5909 16.0358 11.7995 15.7974 12.0131 15.5589C12.4801 15.0274 12.957 14.4859 13.0414 13.6513C13.0464 13.5867 13.0514 13.5222 13.0564 13.4526Z" fill="white"/>
<path d="M13.8264 23.646V22.722C13.5084 22.6922 13.3345 22.6078 12.9917 22.5233C12.3211 22.3544 11.6008 22.1706 10.8457 22.4041C10.5427 22.4985 10.2794 22.5879 10.0409 22.6773C9.47954 22.876 9.02253 23.0399 8.40653 23.0996C8.38667 23.1939 8.36182 23.2933 8.34195 23.3927C8.29228 23.6063 8.24757 23.8298 8.17802 24.0385C8.6897 24.0285 9.15669 23.8099 9.61372 23.6013C9.90681 23.4672 10.1949 23.333 10.488 23.2536C11.6653 22.9406 12.4602 23.2039 13.2004 23.4473C13.4686 23.5367 13.5779 23.5914 13.8313 23.646H13.8264Z" fill="white"/>
<path d="M22.5134 20.2881C22.2103 20.4173 21.9321 20.4868 21.654 20.5166C21.4006 20.5464 21.1423 20.5415 20.8641 20.5315C20.6703 20.5216 20.6505 20.8346 20.8691 20.8445C21.1522 20.8594 21.4155 20.8594 21.6888 20.8296C21.8924 20.8097 22.0961 20.77 22.3097 20.7004C22.2998 20.7402 22.2849 20.7749 22.27 20.8097C22.0464 21.3611 21.5497 21.6592 20.9287 21.7834C20.2779 21.9176 19.493 21.8679 18.7181 21.7288C17.9083 21.5847 17.1136 21.3463 16.4976 21.1177C17.4166 20.9488 18.1269 20.6359 18.6188 20.154C19.1752 19.6125 19.4385 18.8723 19.3838 17.8987C19.349 17.2628 19.1553 16.612 18.9764 16.0059C18.8523 15.5837 18.733 15.1813 18.6833 14.8336C18.5939 14.1878 18.7529 13.7059 19.6272 13.5767C20.2979 13.7605 21.0778 14.0685 21.8826 14.4064C22.4489 14.6448 22.881 14.7044 23.2039 14.6398C23.3729 14.6051 23.507 14.5405 23.6212 14.4461C23.7305 14.3517 23.815 14.2325 23.8746 14.0984C23.9938 13.8102 23.9988 13.4327 23.9193 13.0402C23.9143 13.0154 23.8796 12.8465 23.8448 12.6776C23.7653 12.31 23.6957 11.9722 23.6411 11.6095C23.7852 11.8927 23.9491 12.1759 24.1081 12.459C24.6197 13.3482 25.1264 14.2374 24.9526 14.9875C24.734 15.9314 23.6262 16.145 22.8164 16.2643C22.4687 16.3139 22.5084 16.6269 22.8909 16.5623C23.338 16.4928 23.8547 16.3785 24.262 16.1997C24.3465 16.1599 24.426 16.1202 24.5005 16.0755C24.4905 16.3139 24.4458 16.5176 24.3763 16.7014C24.0285 17.6006 23.348 17.7049 22.4786 17.7894C22.0762 17.8291 22.0961 18.1371 22.4985 18.1023C22.9307 18.0626 23.4125 17.9831 23.7752 17.8341C23.8348 17.8092 23.8944 17.7794 23.9491 17.7496C24.0335 18.2315 23.651 18.6836 23.189 18.9071C22.7171 19.1356 22.1607 19.1306 21.7931 19.1008C21.5198 19.081 21.5149 19.4138 21.7881 19.4138C22.0862 19.4138 22.4091 19.4088 22.7121 19.3691C22.9207 19.3393 23.1195 19.2946 23.2983 19.225C23.2933 19.2499 23.2884 19.2697 23.2834 19.2946C23.2089 19.5877 22.9804 19.9553 22.5134 20.2732L22.5134 20.2881Z" fill="white"/>
<path d="M14.9674 13.4526C15.6479 13.9047 16.0752 14.4213 16.3235 14.9727C16.5173 15.395 16.6017 15.8421 16.6067 16.2991C16.4328 16.0358 16.2242 15.7974 16.0106 15.5589C15.5436 15.0274 15.0667 14.4859 14.9823 13.6513C14.9773 13.5867 14.9723 13.5222 14.9674 13.4526Z" fill="white"/>
<path d="M14.1834 23.646V22.722C14.5063 22.6922 14.6752 22.6078 15.018 22.5233C15.6886 22.3544 16.4139 22.1706 17.164 22.4041C17.4671 22.4985 17.7254 22.5879 17.9688 22.6773C18.5302 22.876 18.9872 23.0399 19.6032 23.0996C19.623 23.1939 19.6479 23.2933 19.6678 23.3927C19.7125 23.6063 19.7621 23.8298 19.8267 24.0385C19.315 24.0285 18.848 23.8099 18.396 23.6013C18.1029 23.4672 17.8148 23.333 17.5167 23.2536C16.3394 22.9406 15.5445 23.2039 14.8044 23.4473C14.5361 23.5367 14.4268 23.5914 14.1735 23.646H14.1834Z" fill="white"/>
<path d="M14.0084 23.9939C14.3362 23.9691 14.5449 23.8697 14.9125 23.7455C15.6129 23.517 16.363 23.2686 17.451 23.5567C17.7192 23.6263 17.9924 23.7555 18.2756 23.8846C18.4495 23.9641 18.6333 24.0485 18.8171 24.1231C19.1698 24.2622 19.5424 24.3665 19.9547 24.3516C20.0044 24.4658 20.064 24.5702 20.1385 24.6695C19.4828 24.6397 18.8867 24.3863 18.3402 24.1479C18.0074 24.0038 17.6895 23.8697 17.3765 23.7902C16.2388 23.5071 15.6676 23.7207 15.0317 23.9591C14.6194 24.1131 14.371 24.2075 14.0084 24.2423C13.6457 24.2125 13.3924 24.1131 12.985 23.9591C12.3492 23.7207 11.7779 23.5071 10.6402 23.7902C10.3273 23.8697 10.0143 24.0038 9.68146 24.1479C9.13501 24.3814 8.53892 24.6397 7.88316 24.6695C7.9527 24.5702 8.01231 24.4658 8.06696 24.3516C8.47928 24.3665 8.85187 24.2671 9.2095 24.1231C9.39331 24.0485 9.57214 23.9691 9.74602 23.8846C10.0242 23.7555 10.3024 23.6263 10.5707 23.5567C11.6586 23.2686 12.4087 23.517 13.1042 23.7455C13.4768 23.8697 13.6854 23.9691 14.0133 23.9939H14.0084Z" fill="white"/>
<path d="M14.0084 19.8163C13.9289 19.8163 13.914 19.9454 13.8742 20.0646C13.8395 20.1739 13.7948 20.2683 13.7351 20.3677C13.7053 20.4223 13.6755 20.472 13.6507 20.5266C13.4122 21.0582 13.6706 21.4159 14.0034 21.7586C14.3511 21.396 14.5946 21.0533 14.3561 20.5266C14.3313 20.472 14.3015 20.4223 14.2766 20.3677C14.222 20.2683 14.1773 20.169 14.1375 20.0646C14.0978 19.9454 14.0829 19.8163 14.0034 19.8163H14.0084Z" fill="white"/>
<path d="M14.6384 12.4838C14.6284 12.4937 14.6185 12.5086 14.6086 12.5235C14.4397 12.7371 14.2658 12.9607 14.1913 13.2736C14.1118 13.6214 13.9131 13.6512 13.8386 13.2885C13.779 13.0054 13.6299 12.7967 13.4809 12.598V12.6079C13.4511 12.5682 13.4213 12.5285 13.3915 12.4887C13.3915 12.8712 13.3865 13.3531 13.3567 13.6859C13.2573 14.6149 12.7506 15.2011 12.2489 15.7674C11.8564 16.2145 11.4739 16.6516 11.3398 17.2328L11.2901 17.4415L11.1063 17.3322C10.7288 17.1136 10.4953 16.8752 10.3562 16.6417C10.2121 16.4032 10.1575 16.1797 10.1326 15.981C10.1028 15.7226 10.1426 15.4842 10.2121 15.047C10.232 14.9228 10.2568 14.7788 10.2866 14.5652C10.4257 13.6511 10.0134 13.363 9.30299 13.4077C9.21854 13.4127 9.13409 13.4226 9.0397 13.4375C9.63086 13.7107 9.74012 14.2274 9.64576 14.8782C9.59609 15.2508 9.47189 15.6631 9.34273 16.1002C9.16886 16.6864 8.98505 17.3173 8.95028 17.9184C8.9006 18.7977 9.13409 19.4584 9.62092 19.9353C10.1177 20.4222 10.8827 20.7202 11.8912 20.8643L11.9806 20.909C12.065 20.9984 12.1545 21.0829 12.2439 21.1624C12.3383 21.2418 12.4327 21.3213 12.532 21.3958C12.8648 21.6442 13.5553 22.1559 13.9578 22.146C14.38 22.141 15.4729 21.3958 15.4729 21.3958C15.4729 21.3958 15.6716 21.2468 15.761 21.1624C15.8554 21.0829 15.9448 20.9984 16.0293 20.909L16.1187 20.8643C17.1271 20.7202 17.8922 20.4222 18.389 19.9353C18.8758 19.4584 19.1093 18.7977 19.0596 17.9184C19.0248 17.3124 18.841 16.6864 18.6672 16.1002C18.538 15.6631 18.4188 15.2508 18.3641 14.8782C18.2697 14.2274 18.379 13.7108 18.9702 13.4375C18.8808 13.4226 18.7913 13.4127 18.7069 13.4077C17.9965 13.358 17.5842 13.6511 17.7233 14.5652C17.758 14.7738 17.7779 14.9179 17.8027 15.047C17.8773 15.4792 17.917 15.7226 17.8822 15.981C17.8574 16.1797 17.8027 16.4032 17.6587 16.6417C17.5146 16.8752 17.2861 17.1136 16.9086 17.3322L16.7247 17.4415L16.6751 17.2328C16.5409 16.6516 16.1584 16.2145 15.766 15.7674C15.2692 15.2011 14.7576 14.6149 14.6582 13.6859C14.6234 13.3531 14.6184 12.8662 14.6234 12.4838L14.6384 12.4838Z" fill="white"/>
<path d="M13.0704 12.0414C13.0058 11.8923 12.9611 11.7284 12.9561 11.5297C12.9462 11.0578 13.1896 10.715 13.438 10.3722C13.6615 10.0642 13.8404 9.86553 13.9099 9.41842C13.9447 9.19487 14.0689 9.22964 14.0987 9.42339C14.1732 9.84068 14.357 10.0543 14.5855 10.3722C14.8289 10.715 15.0773 11.0578 15.0674 11.5297C15.0624 11.7284 15.0177 11.8973 14.9531 12.0414C14.9531 12.3692 14.9482 12.7964 14.9531 13.1094C15.4847 13.4323 15.8871 13.795 16.1901 14.1824L16.1951 14.1526L17.4519 8.04731C17.5612 7.5257 17.6854 7.19786 17.9388 7.00907C18.0381 6.93456 18.1474 6.88985 18.2815 6.86501C18.2468 6.84017 18.207 6.81533 18.1722 6.79049C17.7748 6.52224 17.3774 6.25895 16.9552 6.52224C16.8012 6.6216 16.7266 6.69611 16.6968 6.86998L16.0808 10.2828C16.0262 10.5411 15.7132 10.4915 15.7778 10.1984L16.3739 6.89487C16.4137 6.68623 16.4733 6.45771 16.4137 6.25403C16.3243 5.951 16.0361 5.75229 15.7728 5.56849C15.6536 5.48404 15.5394 5.40456 15.445 5.3201C15.435 5.39959 15.4201 5.4741 15.4102 5.53868L15.0227 9.46813C14.9929 9.71155 14.6849 9.68174 14.7147 9.39858L15.0426 6.05531C15.0774 5.71751 15.0923 5.55854 14.8389 5.31513C14.7346 5.21578 14.6054 5.11643 14.4862 5.02204C14.362 4.92765 14.2378 4.84816 14.1385 4.74881C14.0888 4.69914 14.0441 4.64449 14.0093 4.58984C13.9745 4.64449 13.9298 4.69913 13.8752 4.74881C13.7758 4.8432 13.6516 4.92765 13.5274 5.02204C13.4082 5.11643 13.284 5.21081 13.1747 5.31513C12.9214 5.55358 12.9412 5.71752 12.971 6.05531L13.2989 9.39858C13.3287 9.68175 13.0207 9.70658 12.9909 9.46813L12.6034 5.53868C12.5935 5.4741 12.5836 5.39959 12.5687 5.3201C12.4693 5.40456 12.355 5.48403 12.2358 5.56849C11.9775 5.74732 11.6894 5.94603 11.6 6.25403C11.5403 6.46268 11.6 6.69119 11.6347 6.89487L12.2308 10.1984C12.2954 10.4915 11.9874 10.5412 11.9278 10.2828L11.3118 6.86998C11.282 6.6961 11.2075 6.62159 11.0535 6.52224C10.6362 6.25398 10.2388 6.52224 9.84138 6.79049C9.80661 6.81533 9.76687 6.84017 9.73209 6.86501C9.86125 6.88985 9.97551 6.93952 10.0749 7.00907C10.3232 7.19288 10.4524 7.52572 10.5617 8.04731L11.8136 14.1526L11.8185 14.1824C12.1166 13.795 12.519 13.4323 13.0505 13.1094C13.0555 12.7964 13.0505 12.3692 13.0555 12.0414H13.0704Z" fill="white"/>
<path d="M20.2162 24.1628C20.236 24.2174 20.2609 24.2671 20.2907 24.3218C19.6598 24.4658 18.9494 24.1926 18.3036 23.8995C17.8168 23.6809 17.3299 23.4624 16.8679 23.4425C16.3413 23.4177 15.8495 23.4673 15.3677 23.5816C14.8858 23.6958 14.4188 23.8796 13.932 24.1231C13.927 24.128 13.927 24.128 13.922 24.128H13.8972C13.8972 24.128 13.8922 24.128 13.8922 24.1231C13.8922 24.1231 13.8872 24.1231 13.8872 24.1181C13.4054 23.8747 12.9334 23.6909 12.4515 23.5766C11.9697 23.4624 11.4778 23.4127 10.9513 23.4375C10.4843 23.4574 10.0422 23.6809 9.61002 23.8945C9.03873 24.1777 8.41778 24.4261 7.78687 24.282L7.86138 24.1231C8.4277 24.2522 8.98908 24.0088 9.5355 23.7356C9.98756 23.512 10.4496 23.2835 10.9464 23.2587C11.4878 23.2338 11.9945 23.2835 12.4963 23.4027C12.9782 23.517 13.4501 23.7008 13.9369 23.9393C14.4188 23.6958 14.8957 23.517 15.3776 23.4027C15.8743 23.2835 16.3811 23.2338 16.9275 23.2587C17.4193 23.2835 17.9211 23.5071 18.4228 23.7356C19.0437 24.0138 19.6896 24.287 20.2658 24.1578L20.2162 24.1628Z" fill="black"/>
<path d="M13.7886 22.6182H13.9624V23.9644H13.7886V22.6182Z" fill="black"/>
<path d="M4.80723 9.51731C4.25581 9.25402 3.98256 9.12486 3.43117 8.86157C3.32685 9.08015 3.27717 9.1944 3.18278 9.42292C3.06853 9.37324 3.00891 9.35337 2.89465 9.3037C3.15297 8.67776 3.302 8.37969 3.62489 7.81836C3.73418 7.88294 3.78386 7.91275 3.89315 7.97236C3.77392 8.17604 3.71928 8.28036 3.60999 8.49397C4.15148 8.77217 4.41975 8.91623 4.9612 9.1944C4.89662 9.31859 4.86681 9.38317 4.80223 9.5173L4.80723 9.51731Z" fill="black"/>
<path d="M3.75928 7.59532C3.84373 7.45623 3.88844 7.38668 3.97289 7.25255C4.30573 7.47113 4.46967 7.58042 4.80253 7.799C4.93169 7.88841 5.02111 7.93809 5.06582 7.95796C5.13537 7.98777 5.20492 7.98777 5.27446 7.9679C5.34401 7.94803 5.40363 7.89339 5.46323 7.8139C5.51788 7.73442 5.54769 7.6599 5.54272 7.59532C5.53775 7.53074 5.51291 7.47113 5.4682 7.42642C5.4235 7.38171 5.34401 7.31216 5.22976 7.22771C4.90685 6.98429 4.74292 6.8601 4.41999 6.61668C4.51438 6.48752 4.56405 6.4279 4.65844 6.30371C4.9565 6.54713 5.1105 6.66635 5.40856 6.90977C5.57747 7.04887 5.69669 7.15319 5.75631 7.2277C5.81592 7.29725 5.85567 7.37673 5.87553 7.45125C5.89541 7.53073 5.89541 7.61022 5.87553 7.69963C5.85567 7.78905 5.80599 7.88344 5.73147 7.99273C5.63708 8.12189 5.55759 8.21627 5.47811 8.26595C5.39863 8.31563 5.31915 8.34544 5.23966 8.3504C5.16018 8.36034 5.08566 8.3504 5.01612 8.32556C4.91676 8.29079 4.77767 8.22124 4.60379 8.11195C4.27096 7.90827 4.10205 7.80395 3.76918 7.60028L3.75928 7.59532Z" fill="black"/>
<path d="M6.55378 6.89907C6.10669 6.48178 5.88314 6.27314 5.43602 5.86083C5.28699 6.02476 5.21247 6.10922 5.0684 6.27812C4.97402 6.19864 4.92434 6.1589 4.82996 6.07941C5.22737 5.60748 5.43602 5.38393 5.87814 4.97656C5.96258 5.06598 6.00233 5.11566 6.08678 5.20508C5.92781 5.35411 5.84833 5.42862 5.69432 5.58759C6.12652 6.01979 6.3451 6.2334 6.77729 6.66062C6.68788 6.75501 6.6382 6.79972 6.55374 6.89907H6.55378Z" fill="black"/>
<path d="M7.93242 5.65773C7.37106 5.16095 7.0829 4.91754 6.48181 4.46051C6.60104 4.36116 6.66065 4.31645 6.78484 4.22207C7.1773 4.55987 7.37104 4.72878 7.7486 5.08146C7.55486 4.59959 7.46047 4.35619 7.29156 3.86436C7.44059 3.76501 7.51512 3.71533 7.66415 3.62592C8.04666 3.99353 8.23047 4.18231 8.59312 4.56483C8.41925 4.07302 8.33977 3.82465 8.18577 3.31792C8.31492 3.2434 8.38447 3.20863 8.51363 3.14404C8.69744 3.87925 8.7968 4.23695 9.03027 4.95229C8.91602 5.01687 8.85641 5.05164 8.74215 5.12119C8.3497 4.7188 8.14603 4.52009 7.72876 4.13755C7.91256 4.67406 8.00695 4.93737 8.22056 5.46391C8.1063 5.54339 8.05166 5.58313 7.94237 5.66759L7.93242 5.65773Z" fill="black"/>
<path d="M8.67432 3.05413C8.80844 2.98955 8.87303 2.95975 9.00715 2.89516C9.17606 3.25781 9.26051 3.43665 9.42444 3.79928C9.48902 3.94335 9.5387 4.03277 9.56354 4.07251C9.60825 4.13709 9.66289 4.17683 9.72747 4.1967C9.79205 4.21658 9.86657 4.21161 9.95102 4.17683C10.0355 4.14206 10.0901 4.09735 10.115 4.03773C10.1398 3.98309 10.1497 3.92348 10.1348 3.8589C10.1199 3.79929 10.0851 3.69993 10.0355 3.56084C9.88643 3.18329 9.81192 2.99452 9.66289 2.61696C9.80199 2.56231 9.86657 2.53747 10.0057 2.48779C10.1348 2.85044 10.1994 3.03424 10.3335 3.39688C10.408 3.60553 10.4528 3.75456 10.4677 3.84398C10.4826 3.9334 10.4776 4.01785 10.4577 4.09237C10.4379 4.16688 10.3981 4.23644 10.3385 4.29605C10.2789 4.35566 10.1944 4.4103 10.0851 4.45998C9.95102 4.51463 9.83676 4.54443 9.75231 4.53947C9.66786 4.5345 9.58838 4.51463 9.51883 4.47489C9.44928 4.43514 9.39464 4.39044 9.34993 4.33082C9.28535 4.24637 9.20586 4.11224 9.11147 3.92843C8.9376 3.57572 8.84818 3.40185 8.67432 3.05413V3.05413Z" fill="black"/>
<path d="M10.9494 4.11738C10.7209 3.41696 10.6116 3.0692 10.3831 2.37369C10.6762 2.2793 10.8252 2.23956 11.1232 2.16504C11.312 2.12033 11.4511 2.10543 11.5455 2.12033C11.6399 2.13524 11.7194 2.17995 11.7839 2.2495C11.8535 2.32401 11.8932 2.41343 11.9181 2.51775C11.9429 2.65188 11.928 2.7711 11.8734 2.87543C11.8187 2.97975 11.5852 3.10891 11.5852 3.10891C11.5852 3.11388 11.7343 3.17846 11.7939 3.22317C11.8535 3.26788 11.933 3.35233 12.0373 3.47652C12.1416 3.60071 12.1913 3.6653 12.2906 3.79445C12.1466 3.81929 12.0721 3.83419 11.928 3.864C11.8038 3.7249 11.7442 3.66032 11.615 3.52619C11.5008 3.40697 11.4213 3.33246 11.3816 3.30761C11.3418 3.27781 11.3021 3.2629 11.2673 3.25794C11.2276 3.25297 11.1729 3.26291 11.0984 3.28277C11.0736 3.28774 11.0587 3.29271 11.0338 3.30265C11.1183 3.59574 11.163 3.74477 11.2474 4.03785C11.1282 4.07263 11.0686 4.08753 10.9494 4.12727L10.9494 4.11738ZM10.9543 3.00956C11.0537 2.97976 11.0984 2.96982 11.1978 2.94499C11.3567 2.90524 11.4561 2.87544 11.4909 2.8506C11.5256 2.82576 11.5505 2.79595 11.5654 2.75125C11.5803 2.7115 11.5803 2.66183 11.5703 2.60718C11.5554 2.54757 11.5306 2.50286 11.4909 2.47305C11.4511 2.44325 11.4014 2.42834 11.3418 2.43331C11.312 2.43331 11.2276 2.45318 11.0885 2.48796C10.9792 2.51776 10.9295 2.5277 10.8202 2.56247C10.8749 2.74131 10.8997 2.83072 10.9494 3.00957L10.9543 3.00956Z" fill="black"/>
<path d="M12.4474 3.76425C12.3281 3.03898 12.2685 2.68128 12.1493 1.95601C12.2934 1.93117 12.3679 1.92124 12.5119 1.90137C12.6113 2.62664 12.661 2.98931 12.7554 3.71955C12.6312 3.73445 12.5716 3.74438 12.4474 3.76425V3.76425Z" fill="black"/>
<path d="M13.6374 3.6408C13.6026 2.91055 13.5877 2.54291 13.548 1.81267C13.692 1.8077 13.7666 1.80273 13.9106 1.80273C13.9156 2.09086 13.9205 2.23493 13.9255 2.52304C14.1938 2.51807 14.3279 2.51807 14.5962 2.53297C14.6061 2.24484 14.616 2.10078 14.626 1.81267C14.77 1.81764 14.8445 1.82261 14.9886 1.83254C14.9389 2.56278 14.9091 2.93042 14.8595 3.66067C14.7353 3.65073 14.6756 3.65073 14.5515 3.64576C14.5664 3.32783 14.5713 3.1639 14.5862 2.84594C14.3229 2.83601 14.1938 2.83601 13.9305 2.83601C13.9355 3.15891 13.9404 3.31787 13.9454 3.63583C13.8212 3.63583 13.7616 3.6408 13.6374 3.64576V3.6408Z" fill="black"/>
<path d="M16.5495 3.909C16.4203 3.87919 16.3508 3.86429 16.2167 3.83945C16.1968 3.66558 16.1869 3.58113 16.162 3.40726C15.9087 3.36255 15.7845 3.34268 15.5311 3.3079C15.4566 3.46687 15.4218 3.54635 15.3523 3.70532C15.2231 3.69041 15.1585 3.68545 15.0244 3.67054C15.3275 2.96018 15.5013 2.60745 15.8838 1.92188C16.0378 1.94175 16.1123 1.95665 16.2663 1.98149C16.4253 2.75149 16.4799 3.13894 16.5495 3.90894L16.5495 3.909ZM16.1223 3.07936C16.0825 2.7962 16.0577 2.65214 16.008 2.369C15.8739 2.62235 15.8043 2.75152 15.6802 3.00984C15.859 3.03468 15.9484 3.04958 16.1223 3.07938V3.07936Z" fill="black"/>
<path d="M16.7174 3.94883C16.9012 3.23847 16.9956 2.88077 17.1744 2.17041C17.3135 2.20518 17.383 2.22505 17.5172 2.25983C17.6662 2.81125 17.7258 3.08947 17.8152 3.63589C17.9792 3.17389 18.0636 2.94041 18.2276 2.48341C18.3567 2.52812 18.4213 2.55296 18.5455 2.59766C18.2822 3.28321 18.1481 3.62596 17.8798 4.30658C17.7656 4.26187 17.7059 4.242 17.5867 4.20225C17.5122 3.67071 17.4576 3.40243 17.3234 2.86595C17.1943 3.32795 17.1247 3.55647 16.9906 4.01346C16.8813 3.98366 16.8217 3.96875 16.7124 3.93895L16.7174 3.94883Z" fill="black"/>
<path d="M18.9014 2.7417C19.1497 2.84602 19.2739 2.90067 19.5174 3.01989C19.6515 3.08447 19.7508 3.14906 19.8105 3.20867C19.8899 3.28816 19.9446 3.37757 19.9694 3.48686C19.9943 3.59616 19.9992 3.71042 19.9744 3.82964C19.9495 3.94887 19.8949 4.083 19.8055 4.23203C19.731 4.36119 19.6465 4.46552 19.567 4.545C19.4627 4.63939 19.3584 4.70893 19.2541 4.74371C19.1746 4.77352 19.0852 4.77848 18.9858 4.76855C18.9113 4.75861 18.8219 4.72881 18.7175 4.67913C18.5039 4.57481 18.3996 4.52513 18.181 4.43571L18.9013 2.74668L18.9014 2.7417ZM19.11 3.16892C18.9063 3.61105 18.807 3.82963 18.5983 4.27178C18.6877 4.31152 18.7275 4.33139 18.8169 4.37113C18.8964 4.41088 18.961 4.43571 19.0007 4.44068C19.0554 4.45062 19.105 4.45062 19.1547 4.43075C19.2044 4.41584 19.2541 4.3761 19.3137 4.31649C19.3733 4.25688 19.4379 4.16249 19.5024 4.0383C19.572 3.9141 19.6117 3.80978 19.6266 3.73527C19.6416 3.65578 19.6416 3.5912 19.6217 3.53159C19.6018 3.47198 19.567 3.4223 19.5124 3.37759C19.4726 3.34281 19.3882 3.29314 19.2541 3.23352C19.1945 3.20371 19.1646 3.19378 19.11 3.16397V3.16892Z" fill="black"/>
<path d="M20.7352 5.97536C20.6259 5.88594 20.5713 5.84123 20.462 5.75678C20.5216 5.59285 20.5464 5.50839 20.6011 5.33949C20.3924 5.18052 20.2831 5.106 20.0646 4.96194C19.9304 5.07123 19.8609 5.12588 19.7268 5.24014C19.6125 5.16562 19.5579 5.13085 19.4436 5.06626C20.0298 4.55955 20.3428 4.32111 20.9935 3.87402C21.1227 3.96344 21.1873 4.00815 21.3164 4.10254C21.1227 4.87254 21.0084 5.25005 20.7352 5.97539L20.7352 5.97536ZM20.7004 5.02651C20.7849 4.75329 20.8296 4.61419 20.9041 4.33103C20.6706 4.49994 20.5514 4.58439 20.3229 4.76323C20.4769 4.86755 20.5514 4.91723 20.7004 5.02652V5.02651Z" fill="black"/>
<path d="M21.0295 6.22387C21.2382 5.99536 21.3375 5.87613 21.5462 5.64762C21.6406 5.16078 21.6803 4.91241 21.73 4.41064C21.8691 4.51994 21.9386 4.57955 22.0728 4.69381C22.0181 5.03162 21.9833 5.19555 21.9138 5.52345C22.2317 5.41913 22.3907 5.37442 22.7236 5.28997C22.8477 5.41416 22.9123 5.47874 23.0316 5.6079C22.5298 5.69235 22.2864 5.747 21.8045 5.88112C21.5909 6.10467 21.4866 6.21893 21.273 6.44248C21.1786 6.35306 21.1339 6.30835 21.0345 6.22389L21.0295 6.22387Z" fill="black"/>
<path d="M22.5833 7.99815C22.4989 7.87396 22.4542 7.81435 22.3697 7.70009C22.4691 7.55106 22.5138 7.47655 22.6131 7.32751C22.4442 7.10893 22.3598 6.99964 22.176 6.79597C22.0121 6.86552 21.9326 6.90029 21.7736 6.97481C21.6792 6.87048 21.6345 6.82081 21.5352 6.72145C22.2356 6.38861 22.6032 6.23958 23.3484 5.99121C23.4577 6.1154 23.5073 6.17999 23.6117 6.31411C23.2341 7.0195 23.0255 7.36229 22.5784 8.00314L22.5833 7.99815ZM22.7821 7.04434C22.9361 6.79595 23.0106 6.67176 23.1497 6.41841C22.8764 6.51279 22.7423 6.56743 22.4741 6.67176C22.5982 6.81582 22.6579 6.89034 22.7771 7.04434L22.7821 7.04434Z" fill="black"/>
<path d="M22.6882 8.15184C23.2943 7.73952 23.6023 7.53584 24.2034 7.12354C24.2928 7.2527 24.3325 7.32225 24.417 7.45637C24.1785 7.99786 24.0444 8.26117 23.7563 8.76286C24.1885 8.52937 24.4021 8.41512 24.8343 8.18163C24.9088 8.31576 24.9436 8.38531 25.0131 8.52937L23.3738 9.34907C23.3092 9.21991 23.2794 9.15533 23.2099 9.03114C23.498 8.55423 23.6321 8.30587 23.8706 7.7892C23.4682 8.04752 23.2645 8.17171 22.8621 8.43003C22.7926 8.32074 22.7628 8.2661 22.6883 8.16178L22.6882 8.15184Z" fill="black"/>
<path d="M23.5354 9.67169C24.2011 9.36865 24.5389 9.21465 25.2046 8.91162C25.2741 9.06562 25.3089 9.14511 25.3735 9.30407C24.6979 9.58227 24.3601 9.72633 23.6795 10.0045C23.6248 9.87037 23.595 9.80082 23.5354 9.67166L23.5354 9.67169Z" fill="black"/>
<path d="M13.6024 19.6524C13.7465 19.5133 14.2632 19.5232 14.4172 19.6524C14.5861 19.7915 14.5463 20.5068 14.5463 20.5068C14.5463 20.5068 14.8444 20.8893 14.8345 21.0383C14.8196 21.3215 14.283 21.8332 13.9849 21.8332C13.6869 21.8332 13.1504 21.3066 13.1355 21.0185C13.1256 20.8645 13.4336 20.467 13.4336 20.467C13.4336 20.467 13.4485 19.8014 13.5975 19.6523L13.6024 19.6524ZM13.6124 20.5068C13.6124 20.5068 13.3988 20.8347 13.4087 20.9638C13.4186 21.2023 13.7862 21.6345 13.9899 21.6345C14.1936 21.6345 14.5612 21.2172 14.5712 20.9787C14.5761 20.8545 14.3724 20.5416 14.3724 20.5416C14.3724 20.5416 14.4023 19.9554 14.283 19.8412C14.1787 19.7319 13.821 19.7269 13.7266 19.8412C13.6223 19.9604 13.6124 20.5118 13.6124 20.5118V20.5068Z" fill="black"/>
<path d="M14.6803 16.1752C14.427 15.7728 14.1786 15.3059 14.0047 14.7544C13.7911 15.3207 13.9153 15.8771 14.0196 16.354C14.1389 16.8955 14.268 17.4469 13.9849 18.2964C13.8805 18.6094 13.6123 18.3957 13.6918 18.2119C14.1687 17.0991 13.5974 16.051 13.4533 15.743C13.344 16.1354 13.0311 16.5776 12.8622 16.9551C12.6287 17.4767 12.5393 18.1473 12.8671 18.6342C12.9267 18.7286 13.0062 18.813 13.1006 18.8925C13.1751 18.9521 13.2596 19.0067 13.354 19.0614C13.4086 19.0217 13.4732 18.9918 13.5378 18.962C13.5576 18.9521 13.5775 18.9422 13.5974 18.9372C13.7216 18.8925 13.8557 18.8677 13.9948 18.8677C14.1935 18.8677 14.3823 18.9173 14.5462 19.0067C14.576 19.0217 14.6058 19.0415 14.6356 19.0614C15.2367 18.7435 15.3858 18.1722 15.3162 17.6257C15.3013 17.5114 15.2765 17.3922 15.2467 17.2829C15.2119 17.1687 15.1721 17.0594 15.1274 16.96C15.0082 16.6918 14.8492 16.4384 14.6853 16.1801L14.6803 16.1752Z" fill="white"/>
<path d="M14.1485 14.0288C14.2926 15.0769 14.6403 15.4744 14.9632 16.0258C15.1321 16.294 15.2911 16.5524 15.4203 16.8405V16.8455C15.4699 16.9597 15.5147 17.0839 15.5494 17.2081C15.5842 17.3323 15.614 17.4615 15.6289 17.5906C15.7183 18.2812 15.5097 19.0015 14.6801 19.379L14.5807 19.4237L14.5012 19.3591C14.4814 19.3393 14.4615 19.3293 14.4416 19.3144C14.4217 19.2995 14.4019 19.2896 14.377 19.2747C14.2628 19.2151 14.1286 19.1753 13.9846 19.1753C13.8852 19.1753 13.7908 19.1952 13.7064 19.225C13.6915 19.23 13.6766 19.2349 13.6666 19.2399C13.5971 19.2697 13.5325 19.3095 13.4729 19.3591L13.3934 19.4237L13.2941 19.379H13.2891C13.1301 19.3045 12.996 19.22 12.8768 19.1257C12.7575 19.0313 12.6632 18.922 12.5886 18.8028C12.2012 18.2166 12.2955 17.4416 12.5588 16.8505C12.7774 16.3586 13.1649 15.9563 13.2692 15.3403C13.304 15.1217 13.3437 14.8932 13.5375 15.2658C13.5673 15.3204 13.602 15.3899 13.6318 15.4992C13.5325 15.1118 13.8306 14.2822 13.9349 14.004C14.0293 13.7606 14.1187 13.686 14.1435 14.0338L14.1485 14.0288Z" fill="#FBD206"/>
<path fill-rule="evenodd" clip-rule="evenodd" d="M14.6493 15.8604C14.3756 15.4208 14.0942 14.9687 13.9684 14.0538L14.3284 14.0043C14.4432 14.8392 14.6861 15.2303 14.9544 15.6623C15.0083 15.7491 15.0633 15.8376 15.1184 15.9317C15.2867 16.199 15.4514 16.4663 15.586 16.7665L15.6019 16.8019V16.8457H15.4091L15.2544 16.9151C15.131 16.6399 14.9784 16.3912 14.8094 16.1228L14.8078 16.1204L14.8064 16.1179C14.7551 16.0303 14.7024 15.9456 14.6493 15.8604Z" fill="black"/>
<path fill-rule="evenodd" clip-rule="evenodd" d="M15.3696 17.2525C15.3372 17.1367 15.2953 17.0203 15.2488 16.9133L15.582 16.7685C15.6349 16.89 15.6824 17.022 15.7195 17.1546C15.7556 17.2833 15.7879 17.4222 15.8044 17.564C15.8521 17.9334 15.8216 18.3219 15.6592 18.6737C15.4952 19.0292 15.2025 19.3341 14.7505 19.5398L14.6 19.209C14.9776 19.0372 15.204 18.7932 15.3293 18.5215C15.4562 18.2466 15.4854 17.9301 15.4439 17.6094L15.4437 17.6081L15.4436 17.6069C15.4302 17.4908 15.403 17.3718 15.3696 17.2525Z" fill="black"/>
<path fill-rule="evenodd" clip-rule="evenodd" d="M14.5037 19.2539L14.6031 19.2092L14.6081 19.2205L14.6133 19.214L14.6928 19.2786L14.6552 19.325L14.7522 19.5406L14.5506 19.6313L14.3842 19.496L14.5312 19.3151L14.5037 19.2539Z" fill="black"/>
<path fill-rule="evenodd" clip-rule="evenodd" d="M13.6448 19.0486C13.7447 19.0135 13.859 18.9891 13.9818 18.9891C14.1594 18.9891 14.3221 19.0381 14.4583 19.1091L14.4631 19.1116L14.4677 19.1143C14.4697 19.1155 14.4727 19.1173 14.4765 19.1194C14.4928 19.1288 14.5237 19.1465 14.5478 19.1645C14.551 19.1669 14.5522 19.1677 14.5549 19.1695C14.5577 19.1713 14.562 19.1741 14.5715 19.1807C14.5859 19.1906 14.6059 19.2051 14.6269 19.2261L14.37 19.4831C14.3702 19.4833 14.3704 19.4835 14.3705 19.4836C14.3702 19.4833 14.3688 19.4823 14.3657 19.4801C14.3633 19.4785 14.3617 19.4774 14.3592 19.4758C14.3575 19.4746 14.3554 19.4732 14.3524 19.4712C14.3465 19.4672 14.3385 19.4618 14.3298 19.4552M13.6448 19.0486C13.6443 19.0487 13.6439 19.0489 13.6434 19.049C13.6326 19.0526 13.6096 19.0602 13.5887 19.0699C13.504 19.1066 13.4256 19.1552 13.3538 19.215L13.5864 19.4942C13.6329 19.4555 13.6824 19.4251 13.7354 19.4024L13.7403 19.4003L13.7423 19.3993C13.7427 19.3991 13.7433 19.3989 13.7439 19.3987C13.748 19.3972 13.7531 19.3955 13.7611 19.3928L13.7626 19.3923L13.7641 19.3918C13.8327 19.3676 13.9065 19.3525 13.9818 19.3525C14.0905 19.3525 14.1944 19.3821 14.2857 19.4289C14.3009 19.438 14.3094 19.4428 14.315 19.4459C14.322 19.4499 14.3245 19.4512 14.3298 19.4552M14.3706 19.4836C14.3706 19.4836 14.3705 19.4836 14.3705 19.4836L14.3706 19.4836Z" fill="black"/>
<path fill-rule="evenodd" clip-rule="evenodd" d="M13.287 19.1928H13.331L13.4659 19.2535L13.4384 19.3147L13.5854 19.4956L13.419 19.6308L13.2174 19.5402L13.287 19.3855V19.2908L13.2768 19.2782L13.287 19.2699V19.1928Z" fill="black"/>
<path fill-rule="evenodd" clip-rule="evenodd" d="M14.103 14.0639C14.0513 14.2016 13.9537 14.4708 13.8812 14.7513C13.8448 14.8919 13.8157 15.0318 13.8014 15.1571C13.7868 15.2854 13.7894 15.3841 13.8062 15.4493L13.457 15.5495C13.4458 15.5144 13.4348 15.4842 13.424 15.4577C13.3594 15.7553 13.2363 16.0038 13.1078 16.2276C13.0623 16.3068 13.0176 16.3809 12.9744 16.4524C12.8785 16.6113 12.7902 16.7576 12.7182 16.9194L12.7182 16.9196C12.4671 17.4833 12.3949 18.1851 12.7334 18.6975C12.8042 18.8037 12.8862 18.8979 12.9879 18.9784C13.096 19.064 13.2182 19.1411 13.3645 19.2097L13.2103 19.5387C13.0387 19.4583 12.8926 19.3664 12.7623 19.2633C12.6257 19.1551 12.5189 19.0309 12.4308 18.8987L12.4304 18.8981C11.9942 18.2381 12.1108 17.3903 12.3862 16.7718M13.473 14.9076C13.4891 14.8248 13.5084 14.7415 13.5294 14.6603C13.607 14.3603 13.7103 14.0762 13.7631 13.9354L13.7634 13.9344L13.7638 13.9335C13.789 13.8684 13.817 13.8064 13.8474 13.757C13.8625 13.7325 13.882 13.7048 13.9066 13.6806C13.9288 13.6587 13.9723 13.6224 14.0366 13.6127C14.1143 13.6011 14.1791 13.6338 14.22 13.6758C14.2547 13.7115 14.273 13.7535 14.2835 13.7833C14.3051 13.8449 14.3166 13.9252 14.3231 14.016L14.1163 14.0308C14.112 14.0411 14.1075 14.0521 14.103 14.0639M13.9397 13.9012C13.9397 13.9011 13.9399 13.9016 13.9403 13.9026C13.9398 13.9017 13.9396 13.9012 13.9397 13.9012ZM13.473 14.9076C13.448 14.8948 13.4183 14.8847 13.384 14.882C13.308 14.8761 13.2479 14.9094 13.2097 14.947C13.1757 14.9804 13.156 15.0192 13.1444 15.0466C13.1319 15.0761 13.1227 15.1069 13.1157 15.135C13.1018 15.1901 13.0917 15.2531 13.0833 15.306C13.0363 15.5827 12.9255 15.8153 12.7927 16.0467C12.7561 16.1105 12.7165 16.176 12.676 16.2431C12.5749 16.4108 12.4678 16.5883 12.3862 16.7718" fill="black"/>
<path d="M13.6514 15.2061C13.6514 15.2061 14.1333 16.1997 14.1929 16.7362C14.2476 17.233 13.7061 18.2663 13.7061 18.2663C13.7061 18.2663 13.9694 17.3025 13.9346 16.7909C13.9048 16.3388 13.4825 15.4297 13.4825 15.4297L13.6514 15.2012V15.2061Z" fill="black"/>
</svg>
